Lab3/SystemC code/bin/uut.vcd
$date
     Jan 18, 2014       09:49:38
$end

$version
              SystemC 2.2.0 --- May 18 2011 22:30:02
$end

$timescale
     1 ns
$end

$scope module SystemC $end
$var wire    1  aaa  CLK       $end
$var wire    1  aab  RST_n_tb       $end
$var wire    1  aac  CLEAR_tb       $end
$var wire    5  aad  C0_tb [4:0]  $end
$var wire    5  aae  C1_tb [4:0]  $end
$var wire    8  aaf  A0_tb [7:0]  $end
$var wire    8  aag  A1_tb [7:0]  $end
$var wire    8  aah  A2_tb [7:0]  $end
$var wire    8  aai  A3_tb [7:0]  $end
$upscope $end
$enddefinitions  $end

$comment
All initial values are dumped below at time 0 sec = 0 timescale units.
$end

$dumpvars
1aaa
0aab
0aac
b0 aad
b0 aae
b0 aaf
b0 aag
b0 aah
b0 aai
$end

#10
0aaa

#20
1aaa

#22
1aab

#30
0aaa

#40
1aaa

#42
1aac

#50
0aaa

#60
1aaa

#62
0aac
b1100 aad
b11100 aae

#65
b1000 aaf
b1000 aag
b1100 aah
b1100 aai

#70
0aaa

#80
1aaa

#82
b1101 aad
b11101 aae
b10100 aaf
b10000 aag
b10100 aah
b11000 aai

#85
b10110 aaf
b10010 aag
b10101 aah
b11001 aai

#90
0aaa

#100
1aaa

#102
b1110 aad
b11110 aae
b11111 aaf
b100000 aag
b11111 aah
b100110 aai

#105
b100001 aaf
b100010 aag
b100000 aah
b100111 aai

#110
0aaa

#120
1aaa

#122
b1111 aad
b11111 aae
b101100 aaf
b101101 aag
b110000 aah
b110101 aai

#125
b101110 aaf
b101111 aag
b110001 aah
b110110 aai

#130
0aaa

#140
1aaa

#142
b10000 aad
b0 aae
b111111 aaf
b111100 aag
b111110 aah
b1000101 aai

#145
b101110 aaf
b110001 aag
b110110 aah
b101111 aai

#150
0aaa

#160
1aaa

#162
b10001 aad
b1 aae
b110110 aag
b101111 aah
b110001 aai

#165
b110000 aah
b110010 aai

#170
0aaa

#180
1aaa

#182
b10010 aad
b10 aae
b110000 aag
b110011 aah
b110111 aai

#185
b110100 aah
b111000 aai

#190
0aaa

#200
1aaa

#202
b10011 aad
b11 aae
b110100 aag
b111010 aah
b110010 aai

#205
b111011 aah
b110011 aai

#210
0aaa

#220
1aaa

#222
b10100 aad
b100 aae
b110001 aaf
b111011 aag
b110110 aah
b110111 aai

#225
b110011 aaf
b110111 aah
b111000 aai

#230
0aaa

#240
1aaa

#242
b10101 aad
b101 aae
b110111 aag
b111100 aah
b111111 aai

#245
b111101 aah
b1000000 aai

#250
0aaa

#260
1aaa

#262
b10110 aad
b110 aae
b110111 aaf
b111101 aag
b1000101 aah
b111100 aai

#265
b111001 aaf
b1000110 aah
b111101 aai

#270
0aaa

#280
1aaa

#282
b10111 aad
b111 aae
b1000010 aaf
b1000110 aag
b1000011 aah
b1000011 aai

#285
b1000100 aaf
b1000100 aah
b1000100 aai

#290
0aaa

#300
1aaa

#302
b11000 aad
b1000 aae
b1000100 aag
b1001011 aah
b1001101 aai

#305
b1001100 aah
b1001110 aai

#310
0aaa

#320
1aaa

#322
b11001 aad
b1001 aae
b1001100 aaf
b1001100 aag
b1010110 aah
b1001100 aai

#325
b1001110 aaf
b1010111 aah
b1001101 aai

#330
0aaa

#340
1aaa

#342
b11010 aad
b1010 aae
b1011001 aaf
b1010111 aag
b1010110 aah
b1010101 aai

#345
b1011011 aaf
b1010111 aah
b1010110 aai

#350
0aaa

#360
1aaa

#362
b11011 aad
b1011 aae
b1011111 aag
b1100000 aah
b1100001 aai

#365
b1011101 aaf
b1100001 aag
b1100001 aah
b1100010 aai

#370
0aaa

#380
1aaa

#382
b11100 aad
b1100 aae
b1100111 aaf
b1100011 aag
b1101101 aah
b1101100 aai

#385
b1101001 aaf
b1100101 aag
b1101110 aah
b1101101 aai

#390
0aaa

#400
1aaa

#402
b11101 aad
b1101 aae
b1110110 aaf
b1110001 aag
b1111001 aah
b1110001 aai

#405
b1111000 aaf
b1110011 aag
b1111010 aah
b1110010 aai

#410
0aaa

#420
1aaa

#422
b11110 aad
b1110 aae
b10000100 aaf
b10000010 aag
b1111111 aah
b10000000 aai

#425
b10000110 aaf
b10000100 aag
b10000000 aah
b10000001 aai

#430
0aaa

#440
1aaa

#442
b11111 aad
b1111 aae
b10001100 aaf
b10010010 aag
b10001111 aah
b10010010 aai

#445
b10001110 aaf
b10010100 aag
b10010000 aah
b10010011 aai

#450
0aaa

#460
1aaa

#462
b0 aad
b10000 aae
b10011110 aaf
b10011100 aag
b10100010 aah
b10100011 aai

#465
b10001110 aaf
b10010000 aag
b10010100 aah
b10010011 aai

#470
0aaa

#480
1aaa

#482
b1 aad
b10001 aae
b10010100 aag
b10010000 aah

#485
b10010001 aah
b10010100 aai

#490
0aaa

#500
1aaa

#502
b10 aad
b10010 aae
b10010001 aag
b10010101 aah
b10010101 aai

#505
b10010110 aah
b10010110 aai

#510
0aaa

#520
1aaa

#522
b11 aad
b10011 aae
b10010110 aag
b10010011 aah
b10011000 aai

#525
b10010100 aah
b10011001 aai

#530
0aaa

#540
1aaa

#542
b100 aad
b10100 aae
b10010100 aag
b10011001 aah
b10011100 aai

#545
b10011010 aah
b10011101 aai

#550
0aaa

#560
1aaa

#562
b101 aad
b10101 aae
b10010010 aaf
b10011010 aag
b10011000 aah
b10100001 aai

#565
b10010100 aaf
b10011001 aah
b10100010 aai

#570
0aaa

#580
1aaa

#582
b110 aad
b10110 aae
b10011001 aag
b10011111 aah
b10100111 aai

#585
b10010101 aaf
b10100000 aah
b10101000 aai

#590
0aaa

#600
1aaa

#602
b111 aad
b10111 aae
b10011100 aaf
b10100000 aag
b10011111 aah
b10101110 aai

#605
b10011110 aaf
b10100000 aah
b10101111 aai

#610
0aaa

#620
1aaa

#622
b1000 aad
b11000 aae
b10100111 aah
b10110110 aai

#625
b10100000 aaf
b10101000 aah
b10110111 aai

#630
0aaa

#640
1aaa

#642
b1001 aad
b11001 aae
b10101000 aaf
b10101000 aag
b10101111 aah
b10111111 aai

#645
b10101010 aaf
b10110000 aah
b11000000 aai

#650
0aaa

#660
1aaa

#662
b1010 aad
b11010 aae
b10110010 aaf
b10110000 aag
b10111001 aah
b11001001 aai

#665
b10110100 aaf
b10111010 aah
b11001010 aai

#670
0aaa

#680
1aaa

#682
b1011 aad
b11011 aae
b10111110 aaf
b10111010 aag
b11000100 aah
b11010100 aai

#685
b11000000 aaf
b11000101 aah
b11010101 aai

#690
0aaa

#700
1aaa

#702
b1100 aad
b11100 aae
b11001011 aaf
b11000110 aag
b11010000 aah
b11100000 aai

#705
b11001101 aaf
b11001000 aag
b11010001 aah
b11100001 aai

#710
0aaa

#720
1aaa

#722
b1101 aad
b11101 aae
b11011001 aaf
b11010101 aag
b11011101 aah
b11101101 aai

#725
b11011011 aaf
b11010111 aag
b11011110 aah
b11101110 aai

#730
0aaa

#740
1aaa

#742
b1110 aad
b11110 aae
b11101000 aaf
b11100101 aag
b11101011 aah
b11111011 aai

#745
b11101010 aaf
b11100111 aag
b11101100 aah
b11111100 aai

#750
0aaa

#760
1aaa

#762
b1111 aad
b11111 aae
b11111000 aaf
b11110110 aag
b11111010 aah
b1010 aai

#765
b11111010 aaf
b11111000 aag
b11111011 aah
b1011 aai

#770
0aaa

#780
1aaa

#782
b10000 aad
b0 aae
b1001 aaf
b1000 aag
b1010 aah
b11010 aai

#785
b11111010 aaf
b11111011 aag
b1011 aah
b11111011 aai

#790
0aaa

#800
1aaa

#802
b10001 aad
b1 aae
b11111011 aaf
b1011 aag
b11111011 aah

#805
b11111101 aaf
b11111100 aah
b11111100 aai

#810
0aaa

#820
1aaa

#822
b10010 aad
b10 aae
b11111100 aag
b11111101 aah
b1100 aai

#825
b11111110 aah
b1101 aai

#830
0aaa

#840
1aaa

#842
b10011 aad
b11 aae
b11111110 aag
b1111 aah
b11111111 aai

#845
b10000 aah
b0 aai

#850
0aaa

#860
1aaa

#862
b10100 aad
b100 aae
b110 aaf
b10000 aag
b11 aah
b1 aai

#865
b1000 aaf
b100 aah
b10 aai

#870
0aaa

#880
1aaa

#882
b10101 aad
b101 aae
b100 aag
b110 aah
b10100 aai

#885
b111 aah
b10101 aai

#890
0aaa

#900
1aaa

#902
b10110 aad
b110 aae
b111 aag
b11010 aah
b1010 aai

#905
b11011 aah
b1011 aai

#910
0aaa

#920
1aaa

#922
b10111 aad
b111 aae
b10111 aaf
b11011 aag
b10001 aah
b1101 aai

#925
b11001 aaf
b10010 aah
b1110 aai

#930
0aaa

#940
1aaa

#942
b11000 aad
b1000 aae
b10111 aag
b10101 aah
b100010 aai

#945
b11001 aag
b10110 aah
b100011 aai

#950
0aaa

#960
1aaa

#962
b11001 aad
b1001 aae
b101011 aah
b100001 aai

#965
b11011 aag
b101100 aah
b100010 aai

#970
0aaa

#980
1aaa

#982
b11010 aad
b1010 aae
b101110 aaf
b101100 aag
b101011 aah
b100100 aai

#985
b110000 aaf
b101100 aah
b100101 aai

#990
0aaa

#1000
1aaa

#1002
b11011 aad
b1011 aae
b110100 aag
b101111 aah
b110110 aai

#1005
b110010 aaf
b110110 aag
b110000 aah
b110111 aai

#1010
0aaa

#1020
1aaa

#1022
b11100 aad
b1100 aae
b110110 aaf
b111000 aag
b1000010 aah
b1000001 aai

#1025
b111000 aaf
b111010 aag
b1000011 aah
b1000010 aai

#1030
0aaa

#1040
1aaa

#1042
b11101 aad
b1101 aae
b1001011 aaf
b1000011 aag
b1001110 aah
b1000110 aai

#1045
b1001101 aaf
b1001111 aah
b1000111 aai

#1050
0aaa

#1060
1aaa

#1062
b11110 aad
b1110 aae
b1011001 aaf
b1010111 aag
b1010100 aah
b1010000 aai

#1065
b1011011 aaf
b1011001 aag
b1010101 aah
b1010001 aai

#1070
0aaa

#1080
1aaa

#1082
b11111 aad
b1111 aae
b1100001 aaf
b1100111 aag
b1011111 aah
b1100111 aai

#1085
b1100011 aaf
b1101001 aag
b1100000 aah
b1101000 aai

#1090
0aaa

#1100
1aaa

#1102
b0 aad
b10000 aae
b1101110 aaf
b1110001 aag
b1110111 aah
b1111000 aai

#1105
b1100011 aaf
b1100000 aag
b1101001 aah
b1101000 aai

#1110
0aaa

#1120
1aaa

#1122
b1 aad
b10001 aae
b1101001 aag
b1100000 aah

#1125
b1100001 aah
b1101001 aai

#1130
0aaa

#1140
1aaa

#1142
b10 aad
b10010 aae
b1100001 aag
b1101010 aah
b1101010 aai

#1145
b1101011 aah
b1101011 aai

#1150
0aaa

#1160
1aaa

#1162
b11 aad
b10011 aae
b1101011 aag
b1100011 aah
b1101101 aai

#1165
b1100100 aah
b1101110 aai

#1170
0aaa

#1180
1aaa

#1182
b100 aad
b10100 aae
b1100100 aag
b1101110 aah
b1110001 aai

#1185
b1101111 aah
b1110010 aai

#1190
0aaa

#1200
1aaa

#1202
b101 aad
b10101 aae
b1100111 aaf
b1101111 aag
b1101000 aah
b1110110 aai

#1205
b1101001 aaf
b1101001 aah
b1110111 aai

#1210
0aaa

#1220
1aaa

#1222
b110 aad
b10110 aae
b1101001 aag
b1110100 aah
b1111100 aai

#1225
b1110101 aah
b1111101 aai

#1230
0aaa

#1240
1aaa

#1242
b111 aad
b10111 aae
b1110001 aaf
b1110101 aag
b1110011 aah
b10000011 aai

#1245
b1110011 aaf
b1110100 aah
b10000100 aai

#1250
0aaa

#1260
1aaa

#1262
b1000 aad
b11000 aae
b1110100 aag
b1111100 aah
b10001011 aai

#1265
b1110100 aaf
b1111101 aah
b10001100 aai

#1270
0aaa

#1280
1aaa

#1282
b1001 aad
b11001 aae
b1111101 aaf
b1111101 aag
b10000100 aah
b10010100 aai

#1285
b1111111 aaf
b10000101 aah
b10010101 aai

#1290
0aaa

#1300
1aaa

#1302
b1010 aad
b11010 aae
b10000111 aaf
b10000101 aag
b10001110 aah
b10011110 aai

#1305
b10001001 aaf
b10001111 aah
b10011111 aai

#1310
0aaa

#1320
1aaa

#1322
b1011 aad
b11011 aae
b10010011 aaf
b10001111 aag
b10011001 aah
b10101001 aai

#1325
b10010101 aaf
b10011010 aah
b10101010 aai

#1330
0aaa

#1340
1aaa

#1342
b1100 aad
b11100 aae
b10100000 aaf
b10011011 aag
b10100101 aah
b10110101 aai

#1345
b10100010 aaf
b10011101 aag
b10100110 aah
b10110110 aai

#1350
0aaa

#1360
1aaa

#1362
b1101 aad
b11101 aae
b10101110 aaf
b10101010 aag
b10110010 aah
b11000010 aai

#1365
b10110000 aaf
b10101100 aag
b10110011 aah
b11000011 aai

#1370
0aaa

#1380
1aaa

#1382
b1110 aad
b11110 aae
b10111101 aaf
b10111010 aag
b11000000 aah
b11010000 aai

#1385
b10111111 aaf
b10111100 aag
b11000001 aah
b11010001 aai

#1390
0aaa

#1400
1aaa

#1402
b1111 aad
b11111 aae
b11001101 aaf
b11001011 aag
b11001111 aah
b11011111 aai

#1405
b11001111 aaf
b11001101 aag
b11010000 aah
b11100000 aai

#1410
0aaa

#1420
1aaa

#1422
b10000 aad
b0 aae
b11011110 aaf
b11011101 aag
b11011111 aah
b11101111 aai

#1425
b11001111 aaf
b11010000 aag
b11100000 aah
b11010000 aai

#1430
0aaa

#1440
1aaa

#1442
b10001 aad
b1 aae
b11010000 aaf
b11100000 aag
b11010000 aah

#1445
b11010010 aaf
b11010001 aah
b11010001 aai

#1450
0aaa

#1460
1aaa

#1462
b10010 aad
b10 aae
b11010001 aag
b11010010 aah
b11100001 aai

#1465
b11010011 aah
b11100010 aai

#1470
0aaa

#1480
1aaa

#1482
b10011 aad
b11 aae
b11010011 aag
b11100100 aah
b11010100 aai

#1485
b11100101 aah
b11010101 aai

#1490
0aaa

#1500
1aaa

#1502
b10100 aad
b100 aae
b11011011 aaf
b11100101 aag
b11011000 aah
b11010110 aai

#1505
b11011101 aaf
b11011001 aah
b11010111 aai

#1510
0aaa

#1520
1aaa

#1522
b10101 aad
b101 aae
b11011001 aag
b11011011 aah
b11101001 aai

#1525
b11011100 aah
b11101010 aai

#1530
0aaa

#1540
1aaa

#1542
b10110 aad
b110 aae
b11011100 aag
b11101111 aah
b11011111 aai

#1545
b11110000 aah
b11100000 aai

#1550
0aaa

#1560
1aaa

#1562
b10111 aad
b111 aae
b11101100 aaf
b11110000 aag
b11100110 aah
b11100010 aai

#1565
b11101110 aaf
b11100111 aah
b11100011 aai

#1570
0aaa

#1580
1aaa

#1582
b11000 aad
b1000 aae
b11101100 aag
b11101010 aah
b11110111 aai

#1585
b11101110 aag
b11101011 aah
b11111000 aai

#1590
0aaa

#1600
1aaa

#1602
b11001 aad
b1001 aae
b0 aah
b11110110 aai

#1605
b11110000 aag
b1 aah
b11110111 aai

#1610
0aaa

#1620
1aaa

#1622
b11010 aad
b1010 aae
b11 aaf
b1 aag
b0 aah
b11111001 aai

#1625
b101 aaf
b1 aah
b11111010 aai

#1630
0aaa

#1640
1aaa

#1642
b11011 aad
b1011 aae
b1001 aag
b100 aah
b1011 aai

#1645
b111 aaf
b1011 aag
b101 aah
b1100 aai

#1650
0aaa

#1660
1aaa

#1662
b11100 aad
b1100 aae
b1011 aaf
b1101 aag
b10111 aah
b10110 aai

#1665
b1101 aaf
b1111 aag
b11000 aah
b10111 aai

#1670
0aaa

#1680
1aaa

#1682
b11101 aad
b1101 aae
b100000 aaf
b11000 aag
b100011 aah
b11011 aai

#1685
b100010 aaf
b100100 aah
b11100 aai

#1690
0aaa

#1700
1aaa

#1702
b11110 aad
b1110 aae
b101110 aaf
b101100 aag
b101001 aah
b100101 aai

#1705
b110000 aaf
b101110 aag
b101010 aah
b100110 aai

#1710
0aaa

#1720
1aaa

#1722
b11111 aad
b1111 aae
b110110 aaf
b111100 aag
b110100 aah
b111100 aai

#1725
b111000 aaf
b111110 aag
b110101 aah
b111101 aai

#1730
0aaa

#1740
1aaa

#1742
b0 aad
b10000 aae
b1000011 aaf
b1000110 aag
b1001100 aah
b1001101 aai

#1745
b111000 aaf
b110101 aag
b111110 aah
b111101 aai

#1750
0aaa

#1760
1aaa

#1762
b1 aad
b10001 aae
b111110 aag
b110101 aah

#1765
b110110 aah
b111110 aai

#1770
0aaa

#1780
1aaa

#1782
b10 aad
b10010 aae
b110110 aag
b111111 aah
b111111 aai

#1785
b1000000 aah
b1000000 aai

#1790
0aaa

#1800
1aaa

#1802
b11 aad
b10011 aae
b1000000 aag
b111000 aah
b1000010 aai

#1805
b111001 aah
b1000011 aai

#1810
0aaa

#1820
1aaa

#1822
b100 aad
b10100 aae
b111001 aag
b1000011 aah
b1000110 aai

#1825
b1000100 aah
b1000111 aai

#1830
0aaa

#1840
1aaa

#1842
b101 aad
b10101 aae
b111100 aaf
b1000100 aag
b111101 aah
b1001011 aai

#1845
b111110 aaf
b111110 aah
b1001100 aai

#1850
0aaa

#1860
1aaa

#1862
b110 aad
b10110 aae
b111110 aag
b1001001 aah
b1010001 aai

#1865
b1001010 aah
b1010010 aai

#1870
0aaa

#1880
1aaa

#1882
b111 aad
b10111 aae
b1000110 aaf
b1001010 aag
b1001000 aah
b1011000 aai

#1885
b1001000 aaf
b1001001 aah
b1011001 aai

#1890
0aaa

#1900
1aaa

#1902
b1000 aad
b11000 aae
b1001001 aag
b1010001 aah
b1100000 aai

#1905
b1001001 aaf
b1010010 aah
b1100001 aai

#1910
0aaa

#1920
1aaa

#1922
b1001 aad
b11001 aae
b1010010 aaf
b1010010 aag
b1011001 aah
b1101001 aai

#1925
b1010100 aaf
b1011010 aah
b1101010 aai

#1930
0aaa

#1940
1aaa

#1942
b1010 aad
b11010 aae
b1011100 aaf
b1011010 aag
b1100011 aah
b1110011 aai

#1945
b1011110 aaf
b1100100 aah
b1110100 aai

#1950
0aaa

#1960
1aaa

#1962
b1011 aad
b11011 aae
b1101000 aaf
b1100100 aag
b1101110 aah
b1111110 aai

#1965
b1101010 aaf
b1101111 aah
b1111111 aai

#1970
0aaa

#1980
1aaa

#1982
b1100 aad
b11100 aae
b1110101 aaf
b1110000 aag
b1111010 aah
b10001010 aai

#1985
b1110111 aaf
b1110010 aag
b1111011 aah
b10001011 aai

#1990
0aaa

#2000
1aaa

#2002
b1101 aad
b11101 aae
b10000011 aaf
b1111111 aag
b10000111 aah
b10010111 aai

#2005
b10000101 aaf
b10000001 aag
b10001000 aah
b10011000 aai

#2010
0aaa

#2020
1aaa

#2022
b1110 aad
b11110 aae
b10010010 aaf
b10001111 aag
b10010101 aah
b10100101 aai

#2025
b10010100 aaf
b10010001 aag
b10010110 aah
b10100110 aai

#2030
0aaa

#2040
1aaa

#2042
b1111 aad
b11111 aae
b10100010 aaf
b10100000 aag
b10100100 aah
b10110100 aai

#2045
b10100100 aaf
b10100010 aag
b10100101 aah
b10110101 aai

#2050
0aaa

#2060
1aaa

#2062
b10000 aad
b0 aae
b10110011 aaf
b10110010 aag
b10110100 aah
b11000100 aai

#2065
b10100100 aaf
b10100101 aag
b10110101 aah
b10100101 aai

#2070
0aaa

#2080
1aaa

#2082
b10001 aad
b1 aae
b10100101 aaf
b10110101 aag
b10100101 aah

#2085
b10100111 aaf
b10100110 aah
b10100110 aai

#2090
0aaa

#2100
1aaa

#2102
b10010 aad
b10 aae
b10100110 aag
b10100111 aah
b10110110 aai

#2105
b10101000 aah
b10110111 aai

#2110
0aaa

#2120
1aaa

#2122
b10011 aad
b11 aae
b10101000 aag
b10111001 aah
b10101001 aai

#2125
b10111010 aah
b10101010 aai

#2130
0aaa

#2140
1aaa

#2142
b10100 aad
b100 aae
b10110000 aaf
b10111010 aag
b10101101 aah
b10101011 aai

#2145
b10110010 aaf
b10101110 aah
b10101100 aai

#2150
0aaa

#2160
1aaa

#2162
b10101 aad
b101 aae
b10101110 aag
b10110000 aah
b10111110 aai

#2165
b10110001 aah
b10111111 aai

#2170
0aaa

#2180
1aaa

#2182
b10110 aad
b110 aae
b10110001 aag
b11000100 aah
b10110100 aai

#2185
b11000101 aah
b10110101 aai

#2190
0aaa

#2200
1aaa

#2202
b10111 aad
b111 aae
b11000001 aaf
b11000101 aag
b10111011 aah
b10110111 aai

#2205
b11000011 aaf
b10111100 aah
b10111000 aai

#2210
0aaa

#2220
1aaa

#2222
b11000 aad
b1000 aae
b11000001 aag
b10111111 aah
b11001100 aai

#2225
b11000011 aag
b11000000 aah
b11001101 aai

#2230
0aaa

#2240
1aaa

#2242
b11001 aad
b1001 aae
b11010101 aah
b11001011 aai

#2245
b11000101 aag
b11010110 aah
b11001100 aai

#2250
0aaa

#2260
1aaa

#2262
b11010 aad
b1010 aae
b11011000 aaf
b11010110 aag
b11010101 aah
b11001110 aai

#2265
b11011010 aaf
b11010110 aah
b11001111 aai

#2270
0aaa

#2280
1aaa

#2282
b11011 aad
b1011 aae
b11011110 aag
b11011001 aah
b11100000 aai

#2285
b11011100 aaf
b11100000 aag
b11011010 aah
b11100001 aai

#2290
0aaa

#2300
1aaa

#2302
b11100 aad
b1100 aae
b11100000 aaf
b11100010 aag
b11101100 aah
b11101011 aai

#2305
b11100010 aaf
b11100100 aag
b11101101 aah
b11101100 aai

#2310
0aaa

#2320
1aaa

#2322
b11101 aad
b1101 aae
b11110101 aaf
b11101101 aag
b11111000 aah
b11110000 aai

#2325
b11110111 aaf
b11111001 aah
b11110001 aai

#2330
0aaa

#2340
1aaa

#2342
b11110 aad
b1110 aae
b11 aaf
b1 aag
b11111110 aah
b11111010 aai

#2345
b101 aaf
b11 aag
b11111111 aah
b11111011 aai

#2350
0aaa

#2360
1aaa

#2362
b11111 aad
b1111 aae
b1011 aaf
b10001 aag
b1001 aah
b10001 aai

#2365
b1101 aaf
b10011 aag
b1010 aah
b10010 aai

#2370
0aaa

#2380
1aaa

#2382
b0 aad
b10000 aae
b11000 aaf
b11011 aag
b100001 aah
b100010 aai

#2385
b1101 aaf
b1010 aag
b10011 aah
b10010 aai

#2390
0aaa

#2400
1aaa

#2402
b1 aad
b10001 aae
b10011 aag
b1010 aah

#2405
b1011 aah
b10011 aai

#2410
0aaa

#2420
1aaa

#2422
b10 aad
b10010 aae
b1011 aag
b10100 aah
b10100 aai

#2425
b10101 aah
b10101 aai

#2430
0aaa

#2440
1aaa

#2442
b11 aad
b10011 aae
b10101 aag
b1101 aah
b10111 aai

#2445
b1110 aah
b11000 aai

#2450
0aaa

#2460
1aaa

#2462
b100 aad
b10100 aae
b1110 aag
b11000 aah
b11011 aai

#2465
b11001 aah
b11100 aai

#2470
0aaa

#2480
1aaa

#2482
b101 aad
b10101 aae
b10001 aaf
b11001 aag
b10010 aah
b100000 aai

#2485
b10011 aaf
b10011 aah
b100001 aai

#2490
0aaa

#2500
1aaa

#2502
b110 aad
b10110 aae
b10011 aag
b11110 aah
b100110 aai

#2505
b11111 aah
b100111 aai

#2510
0aaa

#2520
1aaa

#2522
b111 aad
b10111 aae
b11011 aaf
b11111 aag
b11101 aah
b101101 aai

#2525
b11101 aaf
b11110 aah
b101110 aai

#2530
0aaa

#2540
1aaa

#2542
b1000 aad
b11000 aae
b11110 aag
b100110 aah
b110101 aai

#2545
b11110 aaf
b100111 aah
b110110 aai

#2550
0aaa

#2560
1aaa

#2562
b1001 aad
b11001 aae
b100111 aaf
b100111 aag
b101110 aah
b111110 aai

#2565
b101001 aaf
b101111 aah
b111111 aai

#2570
0aaa

#2580
1aaa

#2582
b1010 aad
b11010 aae
b110001 aaf
b101111 aag
b111000 aah
b1001000 aai

#2585
b110011 aaf
b111001 aah
b1001001 aai

#2590
0aaa

#2600
1aaa

#2602
b1011 aad
b11011 aae
b111101 aaf
b111001 aag
b1000011 aah
b1010011 aai

#2605
b111111 aaf
b1000100 aah
b1010100 aai

#2610
0aaa

#2620
1aaa

#2622
b1100 aad
b11100 aae
b1001010 aaf
b1000101 aag
b1001111 aah
b1011111 aai

#2625
b1001100 aaf
b1000111 aag
b1010000 aah
b1100000 aai

#2630
0aaa

#2640
1aaa

#2642
b1101 aad
b11101 aae
b1011000 aaf
b1010100 aag
b1011100 aah
b1101100 aai

#2645
b1011010 aaf
b1010110 aag
b1011101 aah
b1101101 aai

#2650
0aaa

#2660
1aaa

#2662
b1110 aad
b11110 aae
b1100111 aaf
b1100100 aag
b1101010 aah
b1111010 aai

#2665
b1101001 aaf
b1100110 aag
b1101011 aah
b1111011 aai

#2670
0aaa

#2680
1aaa

#2682
b1111 aad
b11111 aae
b1110111 aaf
b1110101 aag
b1111001 aah
b10001001 aai

#2685
b1111001 aaf
b1110111 aag
b1111010 aah
b10001010 aai

#2690
0aaa

#2700
1aaa

#2702
b10000 aad
b0 aae
b10001000 aaf
b10000111 aag
b10001001 aah
b10011001 aai

#2705
b1111001 aaf
b1111010 aag
b10001010 aah
b1111010 aai

#2710
0aaa

#2720
1aaa

#2722
b10001 aad
b1 aae
b1111010 aaf
b10001010 aag
b1111010 aah

#2725
b1111100 aaf
b1111011 aah
b1111011 aai

#2730
0aaa

#2740
1aaa

#2742
b10010 aad
b10 aae
b1111011 aag
b1111100 aah
b10001011 aai

#2745
b1111101 aah
b10001100 aai

#2750
0aaa

#2760
1aaa

#2762
b10011 aad
b11 aae
b1111101 aag
b10001110 aah
b1111110 aai

#2765
b10001111 aah
b1111111 aai

#2770
0aaa

#2780
1aaa

#2782
b10100 aad
b100 aae
b10000101 aaf
b10001111 aag
b10000010 aah
b10000000 aai

#2785
b10000111 aaf
b10000011 aah
b10000001 aai

#2790
0aaa

#2800
1aaa

#2802
b10101 aad
b101 aae
b10000011 aag
b10000101 aah
b10010011 aai

#2805
b10000110 aah
b10010100 aai

#2810
0aaa

#2820
1aaa

#2822
b10110 aad
b110 aae
b10000110 aag
b10011001 aah
b10001001 aai

#2825
b10011010 aah
b10001010 aai

#2830
0aaa

#2840
1aaa

#2842
b10111 aad
b111 aae
b10010110 aaf
b10011010 aag
b10010000 aah
b10001100 aai

#2845
b10011000 aaf
b10010001 aah
b10001101 aai

#2850
0aaa

#2860
1aaa

#2862
b11000 aad
b1000 aae
b10010110 aag
b10010100 aah
b10100001 aai

#2865
b10011000 aag
b10010101 aah
b10100010 aai

#2870
0aaa

#2880
1aaa

#2882
b11001 aad
b1001 aae
b10101010 aah
b10100000 aai

#2885
b10011010 aag
b10101011 aah
b10100001 aai

#2890
0aaa

#2900
1aaa

#2902
b11010 aad
b1010 aae
b10101101 aaf
b10101011 aag
b10101010 aah
b10100011 aai

#2905
b10101111 aaf
b10101011 aah
b10100100 aai

#2910
0aaa

#2920
1aaa

#2922
b11011 aad
b1011 aae
b10110011 aag
b10101110 aah
b10110101 aai

#2925
b10110001 aaf
b10110101 aag
b10101111 aah
b10110110 aai

#2930
0aaa

#2940
1aaa

#2942
b11100 aad
b1100 aae
b10110101 aaf
b10110111 aag
b11000001 aah
b11000000 aai

#2945
b10110111 aaf
b10111001 aag
b11000010 aah
b11000001 aai

#2950
0aaa

#2960
1aaa

#2962
b11101 aad
b1101 aae
b11001010 aaf
b11000010 aag
b11001101 aah
b11000101 aai

#2965
b11001100 aaf
b11001110 aah
b11000110 aai

#2970
0aaa

#2980
1aaa

#2982
b11110 aad
b1110 aae
b11011000 aaf
b11010110 aag
b11010011 aah
b11001111 aai

#2985
b11011010 aaf
b11011000 aag
b11010100 aah
b11010000 aai

#2990
0aaa

#3000
1aaa

#3002
b11111 aad
b1111 aae
b11100000 aaf
b11100110 aag
b11011110 aah
b11100110 aai

#3005
b11100010 aaf
b11101000 aag
b11011111 aah
b11100111 aai

#3010
0aaa

#3020
1aaa

#3022
b0 aad
b10000 aae
b11101101 aaf
b11110000 aag
b11110110 aah
b11110111 aai

#3025
b11100010 aaf
b11011111 aag
b11101000 aah
b11100111 aai

#3030
0aaa

#3040
1aaa

#3042
b1 aad
b10001 aae
b11101000 aag
b11011111 aah

#3045
b11100000 aah
b11101000 aai

#3050
0aaa

#3060
1aaa

#3062
b10 aad
b10010 aae
b11100000 aag
b11101001 aah
b11101001 aai

#3065
b11101010 aah
b11101010 aai

#3070
0aaa

#3080
1aaa

#3082
b11 aad
b10011 aae
b11101010 aag
b11100010 aah
b11101100 aai

#3085
b11100011 aah
b11101101 aai

#3090
0aaa

#3100
1aaa

#3102
b100 aad
b10100 aae
b11100011 aag
b11101101 aah
b11110000 aai

#3105
b11101110 aah
b11110001 aai

#3110
0aaa

#3120
1aaa

#3122
b101 aad
b10101 aae
b11100110 aaf
b11101110 aag
b11100111 aah
b11110101 aai

#3125
b11101000 aaf
b11101000 aah
b11110110 aai

#3130
0aaa

#3140
1aaa

#3142
b110 aad
b10110 aae
b11101000 aag
b11110011 aah
b11111011 aai

#3145
b11110100 aah
b11111100 aai

#3150
0aaa

#3160
1aaa

#3162
b111 aad
b10111 aae
b11110000 aaf
b11110100 aag
b11110010 aah
b10 aai

#3165
b11110010 aaf
b11110011 aah
b11 aai

#3170
0aaa

#3180
1aaa

#3182
b1000 aad
b11000 aae
b11110011 aag
b11111011 aah
b1010 aai

#3185
b11110011 aaf
b11111100 aah
b1011 aai

#3190
0aaa

#3200
1aaa

#3202
b1001 aad
b11001 aae
b11111100 aaf
b11111100 aag
b11 aah
b10011 aai

#3205
b11111110 aaf
b100 aah
b10100 aai

#3210
0aaa

#3220
1aaa

#3222
b1010 aad
b11010 aae
b110 aaf
b100 aag
b1101 aah
b11101 aai

#3225
b1000 aaf
b1110 aah
b11110 aai

#3230
0aaa

#3240
1aaa

#3242
b1011 aad
b11011 aae
b10010 aaf
b1110 aag
b11000 aah
b101000 aai

#3245
b10100 aaf
b11001 aah
b101001 aai

#3250
0aaa

#3260
1aaa

#3262
b1100 aad
b11100 aae
b11111 aaf
b11010 aag
b100100 aah
b110100 aai

#3265
b100001 aaf
b11100 aag
b100101 aah
b110101 aai

#3270
0aaa

#3280
1aaa

#3282
b1101 aad
b11101 aae
b101101 aaf
b101001 aag
b110001 aah
b1000001 aai

